"ACTIVE";"901513643";"2021-03-29 05:00:30";"446324";"131535224";"259148";"LA BANQUE POSTALE";"VISA";"FR";
"ACTIVE";"901513645";"2021-03-29 05:00:43";"446865";"131589336";"259153";"LA BANQUE POSTALE";"VISA";"FR";
"ACTIVE";"901513968";"2021-03-29 05:07:40";"446911";"131593605";"259518";"LA BANQUE POSTALE";"VISA";"FR";
"ACTIVE";"901515984";"2021-03-29 16:37:41";"1441735";"147678893";"1670671";"LA BANQUE POSTALE";"VISA";"FR";